Scraping data from Twitterâ€™s Streaming API
…
How many tweets mention Justin Bieber?

length(grep("bieber", tweets$text, ignore.case=TRUE))

## [1] 0

These are toy examples, but for large files with tweets in JSON format, there might be faster ways to parse the data. For example, the ndjson package offers a robust and fast way to parse JSON data:

library(ndjson)
json <- stream_in("~/data/tweets_geo.json")
json

## Source: local data table [199 x 783]
## 
## # A tibble: 199 x 783
##    contributors coordinates                     created_at
##           <int>       <int>                          <chr>
##  1           NA          NA Tue Jul 31 10:32:15 +0000 2018
##  2           NA          NA Tue Jul 31 10:32:16 +0000 2018
##  3           NA          NA Tue Jul 31 10:32:16 +0000 2018
##  4           NA          NA Tue Jul 31 10:32:16 +0000 2018
##  5           NA          NA Tue Jul 31 10:32:16 +0000 2018
##  6           NA          NA Tue Jul 31 10:32:16 +0000 2018
##  7           NA          NA Tue Jul 31 10:32:16 +0000 2018
##  8           NA          NA Tue Jul 31 10:32:17 +0000 2018
##  9           NA          NA Tue Jul 31 10:32:17 +0000 2018
## 10           NA          NA Tue Jul 31 10:32:17 +0000 2018
## # ... with 189 more rows, and 780 more variables:
## #   display_text_range.0 <dbl>, display_text_range.1 <dbl>,
## #   entities.hashtags <int>, entities.media.0.display_url <chr>,
## #   entities.media.0.expanded_url <chr>, entities.media.0.id <dbl>,
## #   entities.media.0.id_str <chr>, entities.media.0.indices.0 <dbl>,
## #   entities.media.0.indices.1 <dbl>, entities.media.0.media_url <chr>,
## #   entities.media.0.media_url_https <chr>,
## #   entities.media.0.sizes.large.h <dbl>,
## #   entities.media.0.sizes.large.resize <chr>,
…
